{
	"info": {
		"_postman_id": "6d461025-a5d7-4184-a134-7e3ecd1d1d39",
		"name": "INS-BankingAPI",
		"schema": "https://schema.getpostman.com/json/collection/v2.1.0/collection.json"
	},
	"item": [
		{
			"name": "Local",
			"item": [
				{
					"name": "Cheques",
					"request": {
						"method": "POST",
						"header": [],
						"body": {
							"mode": "raw",
							"raw": "{\r\n    \"publicID\": \"0f17bc4a\",\r\n    \"sourceSystem\": \"Test Source System\",\r\n    \"amount\": 100,\r\n    \"checkType\": \"A\",\r\n    \"checkDate\": \"20140817\",\r\n    \"checkNumber\": \"CK000001\",\r\n    \"payee_Line_1\": \"Payee Line 1\",\r\n    \"payee_Line_2\": \"Payee Line 2\",\r\n    \"payee_Line_3\": \"Payee Line 3\",\r\n    \"payee_Line_4\": \"Payee Line 4\",\r\n    \"payee_Line_5\": \"Payee Line 5\",\r\n    \"claimPolicyNum\": \"CS0000001\",\r\n    \"chequeNote1\": \"Note 1\",\r\n    \"chequeNote2\": \"Note 2\",\r\n    \"createDate\": \"2014-08-17\",\r\n    \"senderMsgID\": \"ab\",\r\n    \"processedDate\": \"2014-08-17\",\r\n    \"uwCompany\": \"Compony\",\r\n    \"reason\": \"Test\",\r\n    \"policyNo\": \"S000000001\",\r\n    \"claimNo\": \"C000000001\",\r\n    \"accountNo\": \"A000000001\",\r\n    \"refNo\": \"REF00001\",\r\n    \"category\": \"Test\",\r\n    \"exposureType\": \"Test\",\r\n    \"lossDate\": \"2014-08-17\",\r\n    \"adjusterFirst\": \"Test\",\r\n    \"adjusterLast\": \"Test\",\r\n    \"adjusterBranchNo\": \"B000001\",\r\n    \"paymentType\": \"Test\",\r\n    \"cc_bc_dateStamp\": \"2014-08-17\"\r\n}",
							"options": {
								"raw": {
									"language": "json"
								}
							}
						},
						"url": {
							"raw": "http://localhost:3000/Cheques",
							"protocol": "http",
							"host": [
								"localhost"
							],
							"port": "3000",
							"path": [
								"Cheques"
							]
						}
					},
					"response": []
				},
				{
					"name": "Cheques/BulkPrint",
					"request": {
						"method": "POST",
						"header": [],
						"body": {
							"mode": "raw",
							"raw": "{\r\n    \"publicID\": \"0f17bc4a\",\r\n    \"checkDate\": \"2014-08-17T00:00:00.000Z\",\r\n    \"checkNumber\": \"C00001\",\r\n    \"amount\": 100,\r\n    \"payee_Line_1\": \"Payee Line 1\",\r\n    \"payee_Line_2\": \"Payee Line 2\",\r\n    \"payee_Line_3\": \"Payee Line 3\",\r\n    \"payee_Line_4\": \"Payee Line 4\",\r\n    \"payee_Line_5\": \"Payee Line 5\",\r\n    \"chequeNote1\": \"Cheque Note 1\",\r\n    \"chequeNote2\": \"Cheque Note 2\",\r\n    \"createDate\": \"2014-08-17T00:00:00.000Z\",\r\n    \"senderMsgID\": \"msg\",\r\n    \"processedDate\": \"2014-08-17T00:00:00.000Z\",\r\n    \"uwCompany\": \"test company\",\r\n    \"reason\": \"any reason\",\r\n    \"policyNo\": \"P00001\",\r\n    \"claimNo\": \"C000001\",\r\n    \"accountNo\": \"5286394175\",\r\n    \"refNo\": \"R0002\",\r\n    \"category\": \"Other\",\r\n    \"exposureType\": \"Other\",\r\n    \"lossDate\": \"2014-08-17T00:00:00.000Z\",\r\n    \"adjusterFirst\": \"first\",\r\n    \"adjusterLast\": \"last\",\r\n    \"adjusterBranchNo\": \"N00001\",\r\n    \"insuredName\": \"Example\",\r\n    \"vendorPublicID\": \"0f17bc4a\"\r\n  }",
							"options": {
								"raw": {
									"language": "json"
								}
							}
						},
						"url": {
							"raw": "http://localhost:3000/Cheques/BulkPrint",
							"protocol": "http",
							"host": [
								"localhost"
							],
							"port": "3000",
							"path": [
								"Cheques",
								"BulkPrint"
							]
						}
					},
					"response": []
				},
				{
					"name": "PadBC",
					"request": {
						"method": "POST",
						"header": [],
						"body": {
							"mode": "raw",
							"raw": "{\r\n    \"amount\": 10,\r\n    \"insuredName\": \"Insured name\",\r\n    \"termNumber\": 9,\r\n    \"policyEffDate\": \"201908\",\r\n    \"policyNumber\": \"S00000001\",\r\n    \"publicID\": \"PublicID\",\r\n    \"bankNumber\": \"44\",\r\n    \"bankBranchNumber\": \"555\",\r\n    \"bankAccountNumber\": \"A00012543\",\r\n    \"bankAccountHolderName\": \"CLIENT TEST\",\r\n    \"requestDate\": \"201908\",\r\n    \"dueDate\": \"201908\",\r\n    \"processedDate\": \"201908\",\r\n    \"recordType\": \"T\",\r\n    \"uwCompany\": \"Company\"\r\n}",
							"options": {
								"raw": {
									"language": "json"
								}
							}
						},
						"url": {
							"raw": "http://localhost:3000/PADBC",
							"protocol": "http",
							"host": [
								"localhost"
							],
							"port": "3000",
							"path": [
								"PADBC"
							]
						}
					},
					"response": []
				},
				{
					"name": "PadCC",
					"request": {
						"method": "POST",
						"header": [],
						"body": {
							"mode": "raw",
							"raw": "{\r\n    \"amount\": 100,\r\n    \"claimantName\": \"Claim ant name\",\r\n    \"claimNumber\": \"C00001\",\r\n    \"paymentID\": \"25\",\r\n    \"bankNumber\": \"444\",\r\n    \"bankBranchNumber\": \"00002\",\r\n    \"bankAccountNumber\": \"A528936417\",\r\n    \"bankAccountHolderName\": \"Holder Name\",\r\n    \"requestDate\": \"2019-08-17T00:00:00.000Z\",\r\n    \"dueDate\": \"2019-08-17T00:00:00.000Z\",\r\n    \"processedDate\": \"2019-08-17T00:00:00.000Z\",\r\n    \"recordType\": \"T\",\r\n    \"cc_dateStamp\": \"2019-08-17T00:00:00.000Z\"\r\n}",
							"options": {
								"raw": {
									"language": "json"
								}
							}
						},
						"url": {
							"raw": "http://localhost:3000/PADCC",
							"protocol": "http",
							"host": [
								"localhost"
							],
							"port": "3000",
							"path": [
								"PADCC"
							]
						}
					},
					"response": []
				},
				{
					"name": "DataBanking",
					"request": {
						"method": "POST",
						"header": [],
						"body": {
							"mode": "raw",
							"raw": "{\r\n    \"startDate\":\"2022-01-01\",\r\n    \"endDate\":\"2022-02-02\"\r\n}",
							"options": {
								"raw": {
									"language": "json"
								}
							}
						},
						"url": {
							"raw": "http://localhost:3000/DataBanking",
							"protocol": "http",
							"host": [
								"localhost"
							],
							"port": "3000",
							"path": [
								"DataBanking"
							]
						}
					},
					"response": []
				}
			]
		}
	]
}